pojo\Status.class
utils\payLoad.class
pageObjects\HomePage.class
utils\TestContextSetup.class
pojo\Tags.class
utils\GenericUtils.class
cucumberOptions\TestNGAPIRunner.class
utils\TestBase.class
pojo\Category.class
pojo\UserModel.class
stepDefinitionForAPI\APIStepDefinitions.class
stepDefinitionForWeb\Hooks.class
cucumberOptions\TestNGWebRunner.class
utils\Utils_API.class
pojo\Status_order.class
utils\APIList.class
pageObjects\PageObjectManager.class
pojo\OrderModel.class
pojo\PetModel.class
stepDefinitionForWeb\WebStepDefinitions.class
