C:\Users\Chatty\Downloads\CucumberFramework1\TestAssignment\src\test\java\pojo\UserModel.java
C:\Users\Chatty\Downloads\CucumberFramework1\TestAssignment\src\test\java\stepDefinitionForAPI\APIStepDefinitions.java
C:\Users\Chatty\Downloads\CucumberFramework1\TestAssignment\src\test\java\pojo\OrderModel.java
C:\Users\Chatty\Downloads\CucumberFramework1\TestAssignment\src\test\java\utils\APIList.java
C:\Users\Chatty\Downloads\CucumberFramework1\TestAssignment\src\test\java\utils\GenericUtils.java
C:\Users\Chatty\Downloads\CucumberFramework1\TestAssignment\src\test\java\pojo\PetModel.java
C:\Users\Chatty\Downloads\CucumberFramework1\TestAssignment\src\test\java\pojo\Category.java
C:\Users\Chatty\Downloads\CucumberFramework1\TestAssignment\src\test\java\pojo\Status_order.java
C:\Users\Chatty\Downloads\CucumberFramework1\TestAssignment\src\test\java\cucumberOptions\TestNGWebRunner.java
C:\Users\Chatty\Downloads\CucumberFramework1\TestAssignment\src\test\java\pageObjects\HomePage.java
C:\Users\Chatty\Downloads\CucumberFramework1\TestAssignment\src\test\java\pojo\Tags.java
C:\Users\Chatty\Downloads\CucumberFramework1\TestAssignment\src\test\java\stepDefinitionForWeb\Hooks.java
C:\Users\Chatty\Downloads\CucumberFramework1\TestAssignment\src\test\java\cucumberOptions\FailedTestRunner.java
C:\Users\Chatty\Downloads\CucumberFramework1\TestAssignment\src\test\java\stepDefinitionForWeb\WebStepDefinitions.java
C:\Users\Chatty\Downloads\CucumberFramework1\TestAssignment\src\test\java\cucumberOptions\TestNGTestRunner.java
C:\Users\Chatty\Downloads\CucumberFramework1\TestAssignment\src\test\java\utils\TestBase.java
C:\Users\Chatty\Downloads\CucumberFramework1\TestAssignment\src\test\java\utils\Utils_API.java
C:\Users\Chatty\Downloads\CucumberFramework1\TestAssignment\src\test\java\utils\TestContextSetup.java
C:\Users\Chatty\Downloads\CucumberFramework1\TestAssignment\src\test\java\pageObjects\PageObjectManager.java
C:\Users\Chatty\Downloads\CucumberFramework1\TestAssignment\src\test\java\pojo\Status.java
C:\Users\Chatty\Downloads\CucumberFramework1\TestAssignment\src\test\java\utils\payLoad.java
